--temp-output:D:\dev\AddedValue\AddedValue.SendGrid\AddedValue.SendGrid.ServiceInterface\obj\Release\netstandard1.6\
--out:D:\dev\AddedValue\AddedValue.SendGrid\AddedValue.SendGrid.ServiceInterface\bin\Release\netstandard1.6\AddedValue.SendGrid.ServiceInterface.dll
--define:RELEASE
--define:TRACE
--define:NETSTANDARD1_6
--suppress-warning:CS1701
--suppress-warning:CS1702
--suppress-warning:CS1705
--optimize:True
--output-name:AddedValue.SendGrid.ServiceInterface
--file-version:1.0.0.0
--version:1.0.0.0
--informational-version:1.0.0
--target-framework:.NETStandard,Version=v1.6
--reference:C:\Users\seana\.nuget\packages\Microsoft.AspNetCore.Hosting.Abstractions\1.0.0\lib\netstandard1.3\Microsoft.AspNetCore.Hosting.Abstractions.dll
--reference:C:\Users\seana\.nuget\packages\Microsoft.AspNetCore.Hosting.Server.Abstractions\1.0.0\lib\netstandard1.3\Microsoft.AspNetCore.Hosting.Server.Abstractions.dll
--reference:C:\Users\seana\.nuget\packages\Microsoft.AspNetCore.Http\1.0.0\lib\netstandard1.3\Microsoft.AspNetCore.Http.dll
--reference:C:\Users\seana\.nuget\packages\Microsoft.AspNetCore.Http.Abstractions\1.0.0\lib\netstandard1.3\Microsoft.AspNetCore.Http.Abstractions.dll
--reference:C:\Users\seana\.nuget\packages\Microsoft.AspNetCore.Http.Extensions\1.0.0\lib\netstandard1.3\Microsoft.AspNetCore.Http.Extensions.dll
--reference:C:\Users\seana\.nuget\packages\Microsoft.AspNetCore.Http.Features\1.0.0\lib\netstandard1.3\Microsoft.AspNetCore.Http.Features.dll
--reference:C:\Users\seana\.nuget\packages\Microsoft.AspNetCore.WebUtilities\1.0.0\lib\netstandard1.3\Microsoft.AspNetCore.WebUtilities.dll
--reference:C:\Users\seana\.nuget\packages\Microsoft.CSharp\4.0.1\ref\netstandard1.0\Microsoft.CSharp.dll
--reference:C:\Users\seana\.nuget\packages\Microsoft.Extensions.Configuration.Abstractions\1.0.0\lib\netstandard1.0\Microsoft.Extensions.Configuration.Abstractions.dll
--reference:C:\Users\seana\.nuget\packages\Microsoft.Extensions.DependencyInjection.Abstractions\1.0.0\lib\netstandard1.0\Microsoft.Extensions.DependencyInjection.Abstractions.dll
--reference:C:\Users\seana\.nuget\packages\Microsoft.Extensions.FileProviders.Abstractions\1.0.0\lib\netstandard1.0\Microsoft.Extensions.FileProviders.Abstractions.dll
--reference:C:\Users\seana\.nuget\packages\Microsoft.Extensions.Logging.Abstractions\1.0.0\lib\netstandard1.1\Microsoft.Extensions.Logging.Abstractions.dll
--reference:C:\Users\seana\.nuget\packages\Microsoft.Extensions.ObjectPool\1.0.0\lib\netstandard1.3\Microsoft.Extensions.ObjectPool.dll
--reference:C:\Users\seana\.nuget\packages\Microsoft.Extensions.Options\1.0.0\lib\netstandard1.0\Microsoft.Extensions.Options.dll
--reference:C:\Users\seana\.nuget\packages\Microsoft.Extensions.Primitives\1.0.0\lib\netstandard1.0\Microsoft.Extensions.Primitives.dll
--reference:C:\Users\seana\.nuget\packages\Microsoft.Net.Http.Headers\1.0.0\lib\netstandard1.1\Microsoft.Net.Http.Headers.dll
--reference:C:\Users\seana\.nuget\packages\Microsoft.Win32.Primitives\4.0.1\ref\netstandard1.3\Microsoft.Win32.Primitives.dll
--reference:C:\Users\seana\.nuget\packages\ServiceStack.Client.Core\1.0.27\lib\netstandard1.6\ServiceStack.Client.dll
--reference:C:\Users\seana\.nuget\packages\ServiceStack.Common.Core\1.0.27\lib\netstandard1.3\ServiceStack.Common.dll
--reference:C:\Users\seana\.nuget\packages\ServiceStack.Core\1.0.27\lib\netstandard1.6\ServiceStack.dll
--reference:C:\Users\seana\.nuget\packages\ServiceStack.Interfaces.Core\1.0.27\lib\netstandard1.1\ServiceStack.Interfaces.dll
--reference:C:\Users\seana\.nuget\packages\ServiceStack.OrmLite.Core\1.0.27\lib\netstandard1.3\ServiceStack.OrmLite.dll
--reference:C:\Users\seana\.nuget\packages\ServiceStack.Text.Core\1.0.27\lib\netstandard1.3\ServiceStack.Text.dll
--reference:C:\Users\seana\.nuget\packages\System.AppContext\4.1.0\ref\netstandard1.6\System.AppContext.dll
--reference:C:\Users\seana\.nuget\packages\System.Buffers\4.0.0\lib\netstandard1.1\System.Buffers.dll
--reference:C:\Users\seana\.nuget\packages\System.Collections\4.0.11\ref\netstandard1.3\System.Collections.dll
--reference:C:\Users\seana\.nuget\packages\System.Collections.Concurrent\4.0.12\ref\netstandard1.3\System.Collections.Concurrent.dll
--reference:C:\Users\seana\.nuget\packages\System.Collections.NonGeneric\4.0.1\ref\netstandard1.3\System.Collections.NonGeneric.dll
--reference:C:\Users\seana\.nuget\packages\System.Collections.Specialized\4.0.1\ref\netstandard1.3\System.Collections.Specialized.dll
--reference:C:\Users\seana\.nuget\packages\System.ComponentModel\4.0.1\ref\netstandard1.0\System.ComponentModel.dll
--reference:C:\Users\seana\.nuget\packages\System.ComponentModel.Annotations\4.1.0\ref\netstandard1.4\System.ComponentModel.Annotations.dll
--reference:C:\Users\seana\.nuget\packages\System.ComponentModel.EventBasedAsync\4.0.11\ref\netstandard1.3\System.ComponentModel.EventBasedAsync.dll
--reference:C:\Users\seana\.nuget\packages\System.ComponentModel.Primitives\4.1.0\ref\netstandard1.0\System.ComponentModel.Primitives.dll
--reference:C:\Users\seana\.nuget\packages\System.Console\4.0.0\ref\netstandard1.3\System.Console.dll
--reference:C:\Users\seana\.nuget\packages\System.Data.Common\4.1.0\ref\netstandard1.2\System.Data.Common.dll
--reference:C:\Users\seana\.nuget\packages\System.Data.SqlClient\4.1.0\ref\netstandard1.3\System.Data.SqlClient.dll
--reference:C:\Users\seana\.nuget\packages\System.Diagnostics.Contracts\4.0.1\ref\netstandard1.0\System.Diagnostics.Contracts.dll
--reference:C:\Users\seana\.nuget\packages\System.Diagnostics.Debug\4.0.11\ref\netstandard1.3\System.Diagnostics.Debug.dll
--reference:C:\Users\seana\.nuget\packages\System.Diagnostics.Tools\4.0.1\ref\netstandard1.0\System.Diagnostics.Tools.dll
--reference:C:\Users\seana\.nuget\packages\System.Diagnostics.Tracing\4.1.0\ref\netstandard1.5\System.Diagnostics.Tracing.dll
--reference:C:\Users\seana\.nuget\packages\System.Dynamic.Runtime\4.0.11\ref\netstandard1.3\System.Dynamic.Runtime.dll
--reference:C:\Users\seana\.nuget\packages\System.Globalization\4.0.11\ref\netstandard1.3\System.Globalization.dll
--reference:C:\Users\seana\.nuget\packages\System.Globalization.Calendars\4.0.1\ref\netstandard1.3\System.Globalization.Calendars.dll
--reference:C:\Users\seana\.nuget\packages\System.Globalization.Extensions\4.0.1\ref\netstandard1.3\System.Globalization.Extensions.dll
--reference:C:\Users\seana\.nuget\packages\System.IO\4.1.0\ref\netstandard1.5\System.IO.dll
--reference:C:\Users\seana\.nuget\packages\System.IO.Compression\4.1.0\ref\netstandard1.3\System.IO.Compression.dll
--reference:C:\Users\seana\.nuget\packages\System.IO.Compression.ZipFile\4.0.1\ref\netstandard1.3\System.IO.Compression.ZipFile.dll
--reference:C:\Users\seana\.nuget\packages\System.IO.FileSystem\4.0.1\ref\netstandard1.3\System.IO.FileSystem.dll
--reference:C:\Users\seana\.nuget\packages\System.IO.FileSystem.Primitives\4.0.1\ref\netstandard1.3\System.IO.FileSystem.Primitives.dll
--reference:C:\Users\seana\.nuget\packages\System.Linq\4.1.0\ref\netstandard1.6\System.Linq.dll
--reference:C:\Users\seana\.nuget\packages\System.Linq.Expressions\4.1.0\ref\netstandard1.6\System.Linq.Expressions.dll
--reference:C:\Users\seana\.nuget\packages\System.Linq.Queryable\4.0.1\ref\netstandard1.0\System.Linq.Queryable.dll
--reference:C:\Users\seana\.nuget\packages\System.Net.Http\4.1.0\ref\netstandard1.3\System.Net.Http.dll
--reference:C:\Users\seana\.nuget\packages\System.Net.NetworkInformation\4.1.0\ref\netstandard1.3\System.Net.NetworkInformation.dll
--reference:C:\Users\seana\.nuget\packages\System.Net.Primitives\4.0.11\ref\netstandard1.3\System.Net.Primitives.dll
--reference:C:\Users\seana\.nuget\packages\System.Net.Requests\4.0.11\ref\netstandard1.3\System.Net.Requests.dll
--reference:C:\Users\seana\.nuget\packages\System.Net.Security\4.0.0\ref\netstandard1.3\System.Net.Security.dll
--reference:C:\Users\seana\.nuget\packages\System.Net.Sockets\4.1.0\ref\netstandard1.3\System.Net.Sockets.dll
--reference:C:\Users\seana\.nuget\packages\System.Net.WebHeaderCollection\4.0.1\ref\netstandard1.3\System.Net.WebHeaderCollection.dll
--reference:C:\Users\seana\.nuget\packages\System.Net.WebSockets\4.0.0\ref\netstandard1.3\System.Net.WebSockets.dll
--reference:C:\Users\seana\.nuget\packages\System.ObjectModel\4.0.12\ref\netstandard1.3\System.ObjectModel.dll
--reference:C:\Users\seana\.nuget\packages\System.Reflection\4.1.0\ref\netstandard1.5\System.Reflection.dll
--reference:C:\Users\seana\.nuget\packages\System.Reflection.Emit\4.0.1\ref\netstandard1.1\System.Reflection.Emit.dll
--reference:C:\Users\seana\.nuget\packages\System.Reflection.Emit.ILGeneration\4.0.1\ref\netstandard1.0\System.Reflection.Emit.ILGeneration.dll
--reference:C:\Users\seana\.nuget\packages\System.Reflection.Emit.Lightweight\4.0.1\ref\netstandard1.0\System.Reflection.Emit.Lightweight.dll
--reference:C:\Users\seana\.nuget\packages\System.Reflection.Extensions\4.0.1\ref\netstandard1.0\System.Reflection.Extensions.dll
--reference:C:\Users\seana\.nuget\packages\System.Reflection.Primitives\4.0.1\ref\netstandard1.0\System.Reflection.Primitives.dll
--reference:C:\Users\seana\.nuget\packages\System.Reflection.TypeExtensions\4.1.0\ref\netstandard1.5\System.Reflection.TypeExtensions.dll
--reference:C:\Users\seana\.nuget\packages\System.Resources.ResourceManager\4.0.1\ref\netstandard1.0\System.Resources.ResourceManager.dll
--reference:C:\Users\seana\.nuget\packages\System.Runtime\4.1.0\ref\netstandard1.5\System.Runtime.dll
--reference:C:\Users\seana\.nuget\packages\System.Runtime.Extensions\4.1.0\ref\netstandard1.5\System.Runtime.Extensions.dll
--reference:C:\Users\seana\.nuget\packages\System.Runtime.Handles\4.0.1\ref\netstandard1.3\System.Runtime.Handles.dll
--reference:C:\Users\seana\.nuget\packages\System.Runtime.InteropServices\4.1.0\ref\netstandard1.5\System.Runtime.InteropServices.dll
--reference:C:\Users\seana\.nuget\packages\System.Runtime.InteropServices.RuntimeInformation\4.0.0\ref\netstandard1.1\System.Runtime.InteropServices.RuntimeInformation.dll
--reference:C:\Users\seana\.nuget\packages\System.Runtime.Numerics\4.0.1\ref\netstandard1.1\System.Runtime.Numerics.dll
--reference:C:\Users\seana\.nuget\packages\System.Runtime.Serialization.Primitives\4.1.1\ref\netstandard1.3\System.Runtime.Serialization.Primitives.dll
--reference:C:\Users\seana\.nuget\packages\System.Runtime.Serialization.Xml\4.1.1\ref\netstandard1.3\System.Runtime.Serialization.Xml.dll
--reference:C:\Users\seana\.nuget\packages\System.Security.Claims\4.0.1\ref\netstandard1.3\System.Security.Claims.dll
--reference:C:\Users\seana\.nuget\packages\System.Security.Cryptography.Algorithms\4.2.0\ref\netstandard1.6\System.Security.Cryptography.Algorithms.dll
--reference:C:\Users\seana\.nuget\packages\System.Security.Cryptography.Encoding\4.0.0\ref\netstandard1.3\System.Security.Cryptography.Encoding.dll
--reference:C:\Users\seana\.nuget\packages\System.Security.Cryptography.Primitives\4.0.0\ref\netstandard1.3\System.Security.Cryptography.Primitives.dll
--reference:C:\Users\seana\.nuget\packages\System.Security.Cryptography.X509Certificates\4.1.0\ref\netstandard1.4\System.Security.Cryptography.X509Certificates.dll
--reference:C:\Users\seana\.nuget\packages\System.Security.Principal\4.0.1\ref\netstandard1.0\System.Security.Principal.dll
--reference:C:\Users\seana\.nuget\packages\System.ServiceModel.Primitives\4.1.0\ref\netstandard1.3\System.ServiceModel.Primitives.dll
--reference:C:\Users\seana\.nuget\packages\System.Text.Encoding\4.0.11\ref\netstandard1.3\System.Text.Encoding.dll
--reference:C:\Users\seana\.nuget\packages\System.Text.Encoding.Extensions\4.0.11\ref\netstandard1.3\System.Text.Encoding.Extensions.dll
--reference:C:\Users\seana\.nuget\packages\System.Text.Encodings.Web\4.0.0\lib\netstandard1.0\System.Text.Encodings.Web.dll
--reference:C:\Users\seana\.nuget\packages\System.Text.RegularExpressions\4.1.0\ref\netstandard1.6\System.Text.RegularExpressions.dll
--reference:C:\Users\seana\.nuget\packages\System.Threading\4.0.11\ref\netstandard1.3\System.Threading.dll
--reference:C:\Users\seana\.nuget\packages\System.Threading.Tasks\4.0.11\ref\netstandard1.3\System.Threading.Tasks.dll
--reference:C:\Users\seana\.nuget\packages\System.Threading.Thread\4.0.0\ref\netstandard1.3\System.Threading.Thread.dll
--reference:C:\Users\seana\.nuget\packages\System.Threading.ThreadPool\4.0.10\ref\netstandard1.3\System.Threading.ThreadPool.dll
--reference:C:\Users\seana\.nuget\packages\System.Threading.Timer\4.0.1\ref\netstandard1.2\System.Threading.Timer.dll
--reference:C:\Users\seana\.nuget\packages\System.Xml.ReaderWriter\4.0.11\ref\netstandard1.3\System.Xml.ReaderWriter.dll
--reference:C:\Users\seana\.nuget\packages\System.Xml.XDocument\4.0.11\ref\netstandard1.3\System.Xml.XDocument.dll
--reference:C:\Users\seana\.nuget\packages\System.Xml.XmlDocument\4.0.1\ref\netstandard1.3\System.Xml.XmlDocument.dll
--reference:C:\Users\seana\.nuget\packages\System.Xml.XmlSerializer\4.0.11\ref\netstandard1.3\System.Xml.XmlSerializer.dll
--reference:D:\dev\AddedValue\AddedValue.SendGrid\AddedValue.SendGrid.ServiceModel\bin\Release\netstandard1.6\AddedValue.SendGrid.ServiceModel.dll
D:\dev\AddedValue\AddedValue.SendGrid\AddedValue.SendGrid.ServiceInterface\CoreService.cs
D:\dev\AddedValue\AddedValue.SendGrid\AddedValue.SendGrid.ServiceInterface\Properties\AssemblyInfo.cs
